[
  {
    "id": 1,
    "ref": 127,
    "name": "FA service provider",
    "type": "Client group operations",
    "parent": [
      "Select parent (if applicable) 1",
      "Select parent (if applicable) 2"
    ]
  },
  {
    "id": 2,
    "ref": 1,
    "name": "FA service provider 1",
    "type": "Event service provider",
    "parent": [
      "Select parent (if applicable) 3"
    ]
  },
  {
    "id": 3,
    "ref": 12,
    "name": "FA service provider 2",
    "type": "Client group relations"
  },
  {
    "id": 4,
    "ref": 34,
    "name": "FA service provider 3",
    "type": "Client group relations"
  },
  {
    "id": 5,
    "ref": 45,
    "name": "FA service provider 4",
    "type": "Event service provider"
  },
  {
    "id": 6,
    "ref": 234,
    "name": "FA service provider 5",
    "type": "Client group operations"
  },
  {
    "id": 7,
    "ref": 3490,
    "name": "FA service provider 6",
    "type": "Event service provider"
  },
  {
    "id": 8,
    "ref": 543,
    "name": "FA service provider 7",
    "type": "Client group operations"
  },
  {
    "id": 9,
    "ref": 675,
    "name": "FA service provider 8",
    "type": "Event service provider"
  },
  {
    "id": 10,
    "ref": 53,
    "name": "FA service provider 9",
    "type": "Client group relations"
  }
]
